<?xml version="1.0" standalone="no"?>
<!DOCTYPE svg PUBLIC "-//W3C//DTD SVG 20010904//EN"
 "http://www.w3.org/TR/2001/REC-SVG-20010904/DTD/svg10.dtd">
<svg version="1.0" xmlns="http://www.w3.org/2000/svg"
 width="1200.000000pt" height="1200.000000pt" viewBox="0 0 1200.000000 1200.000000"
 preserveAspectRatio="xMidYMid meet">

<g transform="translate(0.000000,1200.000000) scale(0.100000,-0.100000)"
fill="#000000" stroke="none">
<path d="M0 6000 l0 -6000 1315 0 1315 0 0 4674 0 4674 123 6 c67 3 177 8 245
11 l122 6 0 -4686 0 -4685 2880 0 2880 0 0 4685 0 4685 245 0 245 0 0 -4685 0
-4685 1315 0 1315 0 0 6000 0 6000 -2875 0 -2875 0 -2 -4682 -3 -4683 -245 0
-245 0 -3 4683 -2 4682 -2875 0 -2875 0 0 -6000z m11120 -4350 l0 -600 -350 0
-350 0 0 593 c0 327 3 597 7 600 3 4 161 7 350 7 l343 0 0 -600z"/>
</g>
</svg>
